<?xml version="1.0" encoding="UTF-8" standalone="no"?>
<!-- Generator: Gravit.io -->

<svg
   style="isolation:isolate"
   viewBox="0 0 48.000001 48.000003"
   width="64"
   height="64"
   version="1.1"
   id="svg13"
   sodipodi:docname="logo-icon.svg"
   inkscape:version="1.1 (c4e8f9e, 2021-05-24)"
   xmlns:inkscape="http://www.inkscape.org/namespaces/inkscape"
   xmlns:sodipodi="http://sodipodi.sourceforge.net/DTD/sodipodi-0.dtd"
   xmlns="http://www.w3.org/2000/svg"
   xmlns:svg="http://www.w3.org/2000/svg">
  <sodipodi:namedview
     id="namedview10"
     pagecolor="#ffffff"
     bordercolor="#666666"
     borderopacity="1.0"
     inkscape:pageshadow="2"
     inkscape:pageopacity="0.0"
     inkscape:pagecheckerboard="0"
     showgrid="false"
     inkscape:zoom="8.671875"
     inkscape:cx="32"
     inkscape:cy="32"
     inkscape:window-width="1296"
     inkscape:window-height="777"
     inkscape:window-x="0"
     inkscape:window-y="25"
     inkscape:window-maximized="0"
     inkscape:current-layer="svg13" />
  <defs
     id="defs5">
    <clipPath
       id="_clipPath_kG9y9oOs2ZfPjUBwKzGKjh9pbRMOKcol">
      <rect
         width="60.799999"
         height="66.544998"
         id="rect2"
         x="0"
         y="0" />
    </clipPath>
  </defs>
  <rect
     style="fill:#8b0000;fill-opacity:1;stroke-width:1.82536"
     id="rect5844"
     width="48"
     height="48"
     x="0"
     y="0" />
  <g
     id="g7931"
     transform="matrix(0.79999999,0,0,0.79999999,-1.6635369,3.280097)"
     style="fill:#ffffff">
    <path
       id="path2562"
       style="fill:#8b0000;fill-opacity:1;stroke-width:0.671827"
       d="m 31.711152,3.1184646 c 6.120419,7.6693664 14.697583,14.5294754 23.434757,17.1877004 -0.279831,9.373795 3.223385,20.687073 5.992605,29.149951 l -21.10701,-0.649828 c -0.5931,-4.605962 1.026634,-9.143212 2.968005,-10.550114 -3.777843,-2.411388 -3.675804,-5.200574 -3.476924,-9.01676 L 36.523182,26.23827 h -8.887476 l -3.693398,3.001144 c -0.0935,2.516203 -1.01861,7.472601 -2.613615,9.192517 1.605597,1.828207 3.049378,5.164428 2.84015,9.731359 H 3.9080439 C 5.0939859,43.897709 8.4899935,27.701272 8.9624164,20.901151 17.469932,16.645424 25.936879,10.436779 31.711152,3.1184646 Z" />
    <path
       id="path6009"
       style="isolation:isolate;fill:#ffffff;fill-opacity:1;stroke-width:1.17263"
       d="M 32.07942,1.3862811 C 31.816689,1.3867266 31.557158,1.5220465 31.37172,1.7916644 25.79961,9.1478524 18.265363,17.0429 8.7441781,18.913908 8.277472,18.944397 7.8912141,19.411061 7.8595526,20.014966 6.8660134,29.4787 6.4311235,39.736726 2.2718054,48.515396 c -0.1196122,0.198172 -0.1923843,0.446038 -0.1923843,0.71457 0,0.653155 0.4207458,1.183511 0.9378759,1.183511 h 24.651015 v -2.365303 h -2.124821 c -0.166509,-0.197002 -0.283029,-0.46492 -0.348697,-0.80733 -0.07506,-0.394003 -0.11164,-1.469359 -0.11164,-3.222444 0,-1.90435 -0.22641,-3.241004 -0.680216,-4.012596 -0.444428,-0.772764 -1.096482,-1.331197 -1.951331,-1.674777 0.864227,-0.419802 1.47679,-0.904862 1.83796,-1.458346 0.368208,-0.562863 0.591428,-1.25471 0.666477,-2.076724 0.08442,-0.822014 0.127128,-2.152755 0.127128,-3.990266 0,-1.106964 0.141051,-1.816965 0.425993,-2.126539 0.294333,-0.318955 0.873562,-0.477527 1.736618,-0.477527 h 0.389923 V 26.23827 h -0.690525 c -0.696543,0 -1.297114,0.06231 -1.80017,0.18895 -0.503061,0.125474 -0.943341,0.436153 -1.32093,0.931003 -0.369379,0.494851 -0.599604,1.077896 -0.69224,1.74864 -0.09147,0.66371 -0.146764,1.771229 -0.163185,3.323791 0,1.090548 -0.04766,1.952412 -0.139129,2.590325 -0.08442,0.637909 -0.314654,1.175002 -0.69224,1.611222 -0.377588,0.428011 -0.968263,0.650602 -1.772688,0.668193 v 2.050959 c 0.804425,0.01635 1.3951,0.242281 1.772688,0.678498 0.377586,0.43622 0.607811,0.973313 0.69224,1.611224 0.09146,0.637912 0.139129,1.501493 0.139129,2.592041 0.01635,1.560772 0.0717,2.677094 0.163185,3.347838 0.02463,0.16182 0.0563,0.315952 0.09621,0.46722 H 4.5907306 C 5.9744352,44.517383 8.7857855,35.759543 9.673467,21.104002 12.515923,20.421531 22.844951,17.161763 32.07942,4.3390444 41.31389,17.161763 51.642917,20.421531 54.485373,21.104002 c 0.887682,14.655541 3.699032,23.413381 5.082736,26.944172 H 40.930837 c 0.03987,-0.151273 0.07158,-0.305396 0.09621,-0.46722 0.09146,-0.670744 0.146764,-1.787066 0.163185,-3.347838 0,-1.090548 0.04766,-1.954129 0.139128,-2.592041 0.08442,-0.637911 0.314655,-1.175004 0.692242,-1.611224 0.377588,-0.436217 0.968265,-0.66208 1.772688,-0.678498 v -2.050959 c -0.804423,-0.01761 -1.3951,-0.240182 -1.772688,-0.668193 -0.377587,-0.43622 -0.607812,-0.973313 -0.692242,-1.611222 -0.09148,-0.637913 -0.139128,-1.499777 -0.139128,-2.590325 -0.01635,-1.552562 -0.0717,-2.660081 -0.163185,-3.323791 -0.09265,-0.670744 -0.322864,-1.253789 -0.692243,-1.74864 -0.377587,-0.49485 -0.817867,-0.805532 -1.320925,-0.931003 -0.503059,-0.126642 -1.103631,-0.18895 -1.800173,-0.18895 h -0.690522 v 1.963355 h 0.389921 c 0.863055,0 1.442282,0.158568 1.736614,0.477527 0.284951,0.309574 0.425997,1.019574 0.425997,2.126539 0,1.837511 0.04269,3.168253 0.127109,3.990266 0.07506,0.822014 0.298271,1.513861 0.666477,2.076724 0.361169,0.553484 0.973733,1.038544 1.837962,1.458346 -0.854849,0.34358 -1.506903,0.902015 -1.951331,1.674777 -0.453808,0.771594 -0.680217,2.108246 -0.680217,4.012596 0,1.753087 -0.0366,2.828441 -0.111641,3.222444 -0.06567,0.34241 -0.182184,0.610328 -0.348698,0.80733 h -2.124834 v 2.365303 h 24.651003 c 0.517131,0 0.937876,-0.530356 0.937876,-1.183511 0,-0.268532 -0.07276,-0.516398 -0.192383,-0.71457 C 57.727719,39.736726 57.292828,29.4787 56.299288,20.014966 56.26763,19.411061 55.88137,18.944397 55.414662,18.913908 45.893477,17.0429 38.35923,9.1478524 32.787122,1.7916644 32.601684,1.5220373 32.342151,1.3867266 32.07942,1.3862811 Z" />
  </g>
</svg>
